{
    "version": "1.0.0",
    "summary": "helpful summary of your project, less than 80 characters",
    "repository": "https://github.com/user/project.git",
    "license": "BSD3",
    "source-directories": [
        ".", "src", "tests"
    ],
    "exposed-modules": [],
    "dependencies": {
        "deadfoxygrandpa/elm-test": "3.1.1 <= v < 4.0.0",
        "elm-lang/core": "3.0.0 <= v < 4.0.0",
        "laszlopandy/elm-console": "1.1.0 <= v < 2.0.0"
    },
    "elm-version": "0.16.0 <= v < 0.17.0"
}
